{
  "requests": [],
  "name": "finance-tracker",
  "folders": [
    {
      "v": 1,
      "folders": [
        {
          "name": "create",
          "v": 1,
          "folders": [],
          "requests": [
            {
              "auth": { "authActive": true, "key": "", "value": "", "addTo": "Headers", "authType": "none" },
              "headers": [],
              "endpoint": "http://localhost:3050/account/new",
              "testScript": "",
              "params": [],
              "name": "create-bank-account",
              "body": {
                "contentType": "application/json",
                "body": "{\n  \"name\": \"Bank\",\n  \"type\": \"bank\",\n  \"user\": \"61094d21-3570-4e39-8118-ca96b2c4c55f\",\n  \"accountNumber\": \"0987654321\",\n  \"openingBalance\": 10000\n}"
              },
              "v": "1",
              "method": "POST",
              "preRequestScript": ""
            },
            {
              "method": "POST",
              "name": "create-cash-account",
              "preRequestScript": "",
              "testScript": "",
              "params": [],
              "body": {
                "contentType": "application/json",
                "body": "{\n  \"name\": \"Cash\",\n  \"type\": \"cash\",\n  \"user\": \"60ca81e8-ad62-48d4-b061-a62070dbec1b\",\n  \"accountNumber\": \"0987654321\",\n  \"openingBalance\": 100\n}"
              },
              "headers": [],
              "auth": { "authType": "none", "authActive": true, "addTo": "Headers", "key": "", "value": "" },
              "v": "1",
              "endpoint": "http://localhost:3050/account/new"
            },
            {
              "params": [],
              "method": "POST",
              "body": {
                "body": "{\n  \"name\": \"Credit Card\",\n  \"type\": \"credit-card\",\n  \"user\": \"61094d21-3570-4e39-8118-ca96b2c4c55f\",\n  \"accountNumber\": \"0987654321\",\n  \"creditLimit\": 100\n}",
                "contentType": "application/json"
              },
              "endpoint": "http://localhost:3050/account/new",
              "v": "1",
              "testScript": "",
              "name": "create-credt-card-account",
              "headers": [],
              "auth": { "key": "", "authActive": true, "authType": "none", "addTo": "Headers", "value": "" },
              "preRequestScript": ""
            }
          ]
        },
        {
          "requests": [
            {
              "body": { "contentType": "application/json", "body": "{\n  \"name\": \"My National Bank\"\n}" },
              "v": "1",
              "name": "update-account",
              "endpoint": "http://localhost:3050/account/19557bdd-9df7-46b9-ae37-a19b4ce88b0a",
              "params": [],
              "method": "PATCH",
              "testScript": "",
              "auth": { "authType": "none", "authActive": true, "addTo": "Headers", "value": "", "key": "" },
              "preRequestScript": "",
              "headers": []
            }
          ],
          "folders": [],
          "v": 1,
          "name": "update"
        },
        {
          "folders": [],
          "v": 1,
          "requests": [
            {
              "body": { "contentType": null, "body": null },
              "auth": { "value": "", "key": "", "authActive": true, "authType": "none", "addTo": "Headers" },
              "headers": [],
              "params": [],
              "v": "1",
              "name": "get-accounts",
              "method": "GET",
              "testScript": "",
              "endpoint": "http://localhost:3050/account/all",
              "preRequestScript": ""
            },
            {
              "auth": { "addTo": "Headers", "authType": "none", "authActive": true, "value": "", "key": "" },
              "v": "1",
              "testScript": "",
              "endpoint": "http://localhost:3050/account/19557bdd-9df7-46b9-ae37-a19b4ce88b0a",
              "name": "get-account-by-id",
              "method": "GET",
              "body": { "body": null, "contentType": null },
              "preRequestScript": "",
              "params": [],
              "headers": []
            }
          ],
          "name": "read"
        },
        {
          "requests": [
            {
              "headers": [],
              "params": [{ "key": "allowDelete", "value": "true", "active": true }],
              "v": "1",
              "endpoint": "http://localhost:3050/account/b49cfa1a-8cb6-4e37-b6c4-9448483a04d1",
              "body": { "body": null, "contentType": null },
              "preRequestScript": "",
              "method": "DELETE",
              "testScript": "",
              "auth": { "value": "", "authActive": true, "authType": "none", "addTo": "Headers", "key": "" },
              "name": "delete-account"
            }
          ],
          "folders": [],
          "name": "delete",
          "v": 1
        }
      ],
      "name": "accounts",
      "requests": []
    },
    {
      "requests": [],
      "folders": [
        {
          "v": 1,
          "folders": [],
          "name": "create",
          "requests": [
            {
              "method": "POST",
              "name": "create-transaction",
              "params": [],
              "preRequestScript": "",
              "testScript": "",
              "endpoint": "http://localhost:3050/transaction/new",
              "body": {
                "body": "{\n  \"type\": \"expense\",\n  \"account\": \"697cae77-2119-451a-bc6d-780379311750\",\n  \"category\": \"896643c8-be78-4714-9edd-543d4cb41e3d\",\n  \"description\": \"test\",\n  \"amount\": 532\n}",
                "contentType": "application/json"
              },
              "v": "1",
              "auth": { "authType": "none", "key": "", "value": "", "addTo": "Headers", "authActive": true },
              "headers": []
            }
          ]
        },
        {
          "name": "update",
          "folders": [],
          "v": 1,
          "requests": [
            {
              "auth": { "key": "", "addTo": "Headers", "value": "", "authType": "none", "authActive": true },
              "method": "PATCH",
              "endpoint": "http://localhost:3050/transaction/f4dc457e-37c7-4e61-9167-db69109f731e",
              "testScript": "",
              "headers": [],
              "v": "1",
              "params": [],
              "name": "update-transaction",
              "body": {
                "body": "{\n  \"type\": \"expense\",\n  \"account\": \"50893106-f900-44f9-b9f7-459e0392cc44\",\n  \"amount\": 500\n}",
                "contentType": "application/json"
              },
              "preRequestScript": ""
            }
          ]
        },
        {
          "requests": [
            {
              "name": "get-transactions",
              "preRequestScript": "",
              "testScript": "",
              "body": { "body": null, "contentType": null },
              "params": [],
              "auth": { "value": "", "addTo": "Headers", "authType": "none", "key": "", "authActive": true },
              "endpoint": "http://localhost:3050/transaction/all",
              "v": "1",
              "method": "GET",
              "headers": []
            },
            {
              "endpoint": "http://localhost:3050/transaction/4fe8f853-d17e-472e-b65d-14470fc2d60f",
              "testScript": "",
              "auth": { "addTo": "Headers", "key": "", "authType": "none", "authActive": true, "value": "" },
              "params": [],
              "body": {
                "body": "{\n  \"type\": \"income\",\n  \"account\": \"a8fe1f89-4edf-450c-b9a1-7241b732be9f\",\n  \"description\": \"Transfer\",\n  \"amount\": \"10000\"\n}",
                "contentType": "application/json"
              },
              "name": "get-transaction-by-id",
              "headers": [],
              "v": "1",
              "preRequestScript": "",
              "method": "GET"
            }
          ],
          "v": 1,
          "name": "read",
          "folders": []
        },
        {
          "name": "delete",
          "folders": [],
          "requests": [
            {
              "preRequestScript": "",
              "params": [],
              "headers": [],
              "v": "1",
              "body": { "contentType": null, "body": null },
              "method": "DELETE",
              "auth": { "authActive": true, "authType": "none", "value": "", "key": "", "addTo": "Headers" },
              "endpoint": "http://localhost:3050/transaction/6a4ef876-8662-4a83-af14-d61d8a8269fd",
              "testScript": "",
              "name": "delete-transaction-by-id"
            }
          ],
          "v": 1
        }
      ],
      "v": 1,
      "name": "transactions"
    },
    {
      "name": "category",
      "v": 1,
      "folders": [
        {
          "folders": [],
          "v": 1,
          "requests": [
            {
              "testScript": "",
              "endpoint": "http://localhost:3050/category/new",
              "method": "POST",
              "headers": [],
              "params": [],
              "body": {
                "contentType": "application/json",
                "body": "{\n  \"name\": \"Utilities\",\n  \"color\": \"blue\",\n  \"description\": \"to utilize stuff.\"\n}"
              },
              "auth": { "addTo": "Headers", "value": "", "authType": "none", "key": "", "authActive": true },
              "v": "1",
              "name": "create-category",
              "preRequestScript": ""
            }
          ],
          "name": "create"
        },
        {
          "v": 1,
          "folders": [],
          "requests": [
            {
              "preRequestScript": "",
              "params": [],
              "body": { "body": "{\n  \"color\": \"green\"\n}", "contentType": "application/json" },
              "method": "PATCH",
              "testScript": "",
              "v": "1",
              "name": "update-category",
              "endpoint": "http://localhost:3050/category/68408794-b688-42b8-9d96-50a0cd164a34",
              "headers": [],
              "auth": { "authType": "none", "addTo": "Headers", "key": "", "authActive": true, "value": "" }
            }
          ],
          "name": "update"
        },
        {
          "folders": [],
          "requests": [
            {
              "v": "1",
              "endpoint": "http://localhost:3050/category/all",
              "name": "get-categories",
              "params": [{ "key": "pageSize", "value": "20", "active": true }],
              "headers": [],
              "method": "GET",
              "auth": { "value": "", "authActive": true, "addTo": "Headers", "authType": "none", "key": "" },
              "preRequestScript": "",
              "testScript": "",
              "body": { "contentType": null, "body": null }
            },
            {
              "endpoint": "http://localhost:3050/category/8d4991d1-a80f-4478-a92a-f188fb2d6bea",
              "testScript": "",
              "auth": { "authType": "none", "addTo": "Headers", "key": "", "authActive": true, "value": "" },
              "v": "1",
              "params": [],
              "name": "get-category-by-id",
              "preRequestScript": "",
              "body": { "contentType": null, "body": null },
              "headers": [],
              "method": "GET"
            }
          ],
          "name": "read",
          "v": 1
        },
        {
          "v": 1,
          "requests": [
            {
              "body": { "body": null, "contentType": null },
              "endpoint": "http://localhost:3050/category/14e7386b-c831-4dcb-b480-985b5ac4b857",
              "name": "delete-category",
              "testScript": "",
              "headers": [],
              "method": "DELETE",
              "auth": { "value": "", "addTo": "Headers", "key": "", "authActive": true, "authType": "none" },
              "preRequestScript": "",
              "v": "1",
              "params": []
            }
          ],
          "folders": [],
          "name": "delete"
        }
      ],
      "requests": []
    },
    {
      "folders": [
        {
          "folders": [],
          "name": "create",
          "requests": [
            {
              "auth": { "value": "", "authType": "none", "addTo": "Headers", "key": "", "authActive": true },
              "testScript": "",
              "name": "create-user",
              "method": "POST",
              "preRequestScript": "",
              "v": "1",
              "endpoint": "http://localhost:3050/user/new",
              "body": {
                "contentType": "application/json",
                "body": "{\n  \"name\": \"User\",\n  \"email\": \"user@example.com\",\n  \"password\": \"thisisanawesomepassword\"\n}"
              },
              "params": [],
              "headers": []
            }
          ],
          "v": 1
        },
        {
          "v": 1,
          "folders": [],
          "name": "read",
          "requests": [
            {
              "params": [],
              "name": "get-users",
              "headers": [],
              "auth": { "value": "", "addTo": "Headers", "authActive": true, "authType": "none", "key": "" },
              "endpoint": "http://localhost:3050/user/all",
              "preRequestScript": "",
              "method": "GET",
              "v": "1",
              "body": { "contentType": null, "body": null },
              "testScript": ""
            }
          ]
        }
      ],
      "requests": [],
      "name": "user",
      "v": 1
    },
    {
      "name": "sessions",
      "v": 1,
      "requests": [
        {
          "v": "1",
          "auth": { "value": "", "addTo": "Headers", "authActive": true, "authType": "none", "key": "" },
          "testScript": "",
          "params": [],
          "name": "login-user",
          "preRequestScript": "",
          "headers": [],
          "method": "POST",
          "endpoint": "http://localhost:3050/user/login",
          "body": {
            "contentType": "application/json",
            "body": "{\n  \"email\": \"user@example.com\",\n  \"password\": \"thisisanawesomepassword\"\n}"
          }
        },
        {
          "endpoint": "http://localhost:3050/user/me",
          "name": "me-user",
          "v": "1",
          "testScript": "",
          "params": [],
          "auth": { "addTo": "Headers", "value": "", "authType": "none", "authActive": true, "key": "" },
          "body": {
            "body": "{\n  \"email\": \"user@example.com\",\n  \"password\": \"thisisanawesomepassword\"\n}",
            "contentType": "application/json"
          },
          "preRequestScript": "",
          "method": "GET",
          "headers": []
        }
      ],
      "folders": []
    }
  ],
  "v": 1
}
